{
  "tags": {
    "allowUnknownTags": true
  },
  "source": {
    "include": ["src"],
    "exclude": ["node_modules"],
    "includePattern": ".+\\.js$"
  },
  "plugins": ["plugins/markdown"],
  "sourceType": "module",
  "templates": {
    "cleverLinks": false,
    "monospaceLinks": true
  },
  "opts": {
    "recurse": true,
    "destination": "./docs/"
  }
}
